// Jest Snapshot v1, https://goo.gl/fbAQLP

exports[`<Button/> should render as a button element when no type is provided 1`] = `
<div>
  <button
    class="c-button"
  />
</div>
`;

exports[`<Button/> should render as a link element when isLink flag is set 1`] = `
<div>
  <a
    rel="rel"
  />
</div>
`;

exports[`<Button/> should render as a link element with \`rel="external noopener noreferrer"\` if the \`isExternalLink\` prop is true 1`] = `
<div>
  <a
    rel="external noopener noreferrer"
    target="target"
  />
</div>
`;

exports[`<Button/> should render as a link element with existing \`rel\` value intact when \`isExternalLink\` prop is false 1`] = `
<div>
  <a
    rel="rel"
    target="target"
  />
</div>
`;

exports[`<Button/> should set the \`target\` prop as the \`target\` attribute if rendering a link 1`] = `
<div>
  <a
    rel="rel"
    target="target"
  />
</div>
`;

exports[`<Button/> should support an href attribute if the button is a link and no click handler has been defined 1`] = `
<div>
  <a
    href="https://www.xero.com"
    rel="rel"
    target="target"
  />
</div>
`;
